(footprint ROHM_SOT-457_ClockwisePinNumbering (version 20221018) (generator kicad-footprint-generator)
  (layer F.Cu)
  (descr "ROHM SOT-457 SC-74, 6 Pin (https://fscdn.rohm.com/en/products/databook/datasheet/discrete/transistor/digital/imh3at110-e.pdf), generated with kicad-footprint-generator ipc_gullwing_generator.py")
  (tags "ROHM SC-74 SO")
  (attr smd)
  (fp_text reference REF** (at 0 -2.8) (layer F.SilkS)
    (effects (font (size 1 1) (thickness 0.15)))
  )
  (fp_text value ROHM_SOT-457_ClockwisePinNumbering (at 0 2.8) (layer F.Fab)
    (effects (font (size 1 1) (thickness 0.15)))
  )
  (fp_line (start 1.56 0.825) (end 1.56 0)
    (stroke (width 0.12) (type solid)) (layer F.SilkS))
  (fp_line (start -1.56 0.825) (end -1.56 0)
    (stroke (width 0.12) (type solid)) (layer F.SilkS))
  (fp_line (start 1.56 -0.825) (end 1.56 0)
    (stroke (width 0.12) (type solid)) (layer F.SilkS))
  (fp_line (start -1.56 0) (end -1.56 -1.85)
    (stroke (width 0.12) (type solid)) (layer F.SilkS))
  (fp_line (start -1.0375 -0.825) (end 1.45 -0.825)
    (stroke (width 0.1) (type solid)) (layer F.Fab))
  (fp_line (start 1.45 -0.825) (end 1.45 0.825)
    (stroke (width 0.1) (type solid)) (layer F.Fab))
  (fp_line (start 1.45 0.825) (end -1.45 0.825)
    (stroke (width 0.1) (type solid)) (layer F.Fab))
  (fp_line (start -1.45 0.825) (end -1.45 -0.4125)
    (stroke (width 0.1) (type solid)) (layer F.Fab))
  (fp_line (start -1.45 -0.4125) (end -1.0375 -0.825)
    (stroke (width 0.1) (type solid)) (layer F.Fab))
  (fp_line (start -1.7 -2.1) (end -1.7 2.1)
    (stroke (width 0.05) (type solid)) (layer F.CrtYd))
  (fp_line (start -1.7 2.1) (end 1.7 2.1)
    (stroke (width 0.05) (type solid)) (layer F.CrtYd))
  (fp_line (start 1.7 2.1) (end 1.7 -2.1)
    (stroke (width 0.05) (type solid)) (layer F.CrtYd))
  (fp_line (start 1.7 -2.1) (end -1.7 -2.1)
    (stroke (width 0.05) (type solid)) (layer F.CrtYd))
  (pad 1 smd roundrect (at -0.95 -1.1) (size 0.5 1.5) (layers F.Cu F.Mask F.Paste) (roundrect_rratio 0.25))
  (pad 2 smd roundrect (at 0 -1.1) (size 0.5 1.5) (layers F.Cu F.Mask F.Paste) (roundrect_rratio 0.25))
  (pad 3 smd roundrect (at 0.95 -1.1) (size 0.5 1.5) (layers F.Cu F.Mask F.Paste) (roundrect_rratio 0.25))
  (pad 4 smd roundrect (at 0.95 1.1) (size 0.5 1.5) (layers F.Cu F.Mask F.Paste) (roundrect_rratio 0.25))
  (pad 5 smd roundrect (at 0 1.1) (size 0.5 1.5) (layers F.Cu F.Mask F.Paste) (roundrect_rratio 0.25))
  (pad 6 smd roundrect (at -0.95 1.1) (size 0.5 1.5) (layers F.Cu F.Mask F.Paste) (roundrect_rratio 0.25))
  (fp_text user ${REFERENCE} (at 0 0) (layer F.Fab)
    (effects (font (size 0.72 0.72) (thickness 0.11)))
  )
  (model ${KICAD7_3DMODEL_DIR}/Package_SO.3dshapes/ROHM_SOT-457_ClockwisePinNumbering.wrl
    (offset (xyz 0 0 0))
    (scale (xyz 1 1 1))
    (rotate (xyz 0 0 0))
  )
)
