(footprint SOP-18_7.495x11.515mm_P1.27mm (version 20221018) (generator kicad-footprint-generator)
  (layer F.Cu)
  (descr "SOP, 18 Pin (https://toshiba.semicon-storage.com/info/docget.jsp?did=30523), generated with kicad-footprint-generator ipc_gullwing_generator.py")
  (tags "SOP SO")
  (attr smd)
  (fp_text reference REF** (at 0 -6.71) (layer F.SilkS)
    (effects (font (size 1 1) (thickness 0.15)))
  )
  (fp_text value SOP-18_7.495x11.515mm_P1.27mm (at 0 6.71) (layer F.Fab)
    (effects (font (size 1 1) (thickness 0.15)))
  )
  (fp_line (start 0 5.8675) (end 3.8575 5.8675)
    (stroke (width 0.12) (type solid)) (layer F.SilkS))
  (fp_line (start 3.8575 5.8675) (end 3.8575 5.64)
    (stroke (width 0.12) (type solid)) (layer F.SilkS))
  (fp_line (start 0 5.8675) (end -3.8575 5.8675)
    (stroke (width 0.12) (type solid)) (layer F.SilkS))
  (fp_line (start -3.8575 5.8675) (end -3.8575 5.64)
    (stroke (width 0.12) (type solid)) (layer F.SilkS))
  (fp_line (start 0 -5.8675) (end 3.8575 -5.8675)
    (stroke (width 0.12) (type solid)) (layer F.SilkS))
  (fp_line (start 3.8575 -5.8675) (end 3.8575 -5.64)
    (stroke (width 0.12) (type solid)) (layer F.SilkS))
  (fp_line (start 0 -5.8675) (end -3.8575 -5.8675)
    (stroke (width 0.12) (type solid)) (layer F.SilkS))
  (fp_line (start -3.8575 -5.8675) (end -3.8575 -5.64)
    (stroke (width 0.12) (type solid)) (layer F.SilkS))
  (fp_line (start -3.8575 -5.64) (end -5.675 -5.64)
    (stroke (width 0.12) (type solid)) (layer F.SilkS))
  (fp_line (start -2.7475 -5.7575) (end 3.7475 -5.7575)
    (stroke (width 0.1) (type solid)) (layer F.Fab))
  (fp_line (start 3.7475 -5.7575) (end 3.7475 5.7575)
    (stroke (width 0.1) (type solid)) (layer F.Fab))
  (fp_line (start 3.7475 5.7575) (end -3.7475 5.7575)
    (stroke (width 0.1) (type solid)) (layer F.Fab))
  (fp_line (start -3.7475 5.7575) (end -3.7475 -4.7575)
    (stroke (width 0.1) (type solid)) (layer F.Fab))
  (fp_line (start -3.7475 -4.7575) (end -2.7475 -5.7575)
    (stroke (width 0.1) (type solid)) (layer F.Fab))
  (fp_line (start -5.93 -6.01) (end -5.93 6.01)
    (stroke (width 0.05) (type solid)) (layer F.CrtYd))
  (fp_line (start -5.93 6.01) (end 5.93 6.01)
    (stroke (width 0.05) (type solid)) (layer F.CrtYd))
  (fp_line (start 5.93 6.01) (end 5.93 -6.01)
    (stroke (width 0.05) (type solid)) (layer F.CrtYd))
  (fp_line (start 5.93 -6.01) (end -5.93 -6.01)
    (stroke (width 0.05) (type solid)) (layer F.CrtYd))
  (pad 1 smd roundrect (at -4.725 -5.08) (size 1.9 0.6) (layers F.Cu F.Mask F.Paste) (roundrect_rratio 0.25))
  (pad 2 smd roundrect (at -4.725 -3.81) (size 1.9 0.6) (layers F.Cu F.Mask F.Paste) (roundrect_rratio 0.25))
  (pad 3 smd roundrect (at -4.725 -2.54) (size 1.9 0.6) (layers F.Cu F.Mask F.Paste) (roundrect_rratio 0.25))
  (pad 4 smd roundrect (at -4.725 -1.27) (size 1.9 0.6) (layers F.Cu F.Mask F.Paste) (roundrect_rratio 0.25))
  (pad 5 smd roundrect (at -4.725 0) (size 1.9 0.6) (layers F.Cu F.Mask F.Paste) (roundrect_rratio 0.25))
  (pad 6 smd roundrect (at -4.725 1.27) (size 1.9 0.6) (layers F.Cu F.Mask F.Paste) (roundrect_rratio 0.25))
  (pad 7 smd roundrect (at -4.725 2.54) (size 1.9 0.6) (layers F.Cu F.Mask F.Paste) (roundrect_rratio 0.25))
  (pad 8 smd roundrect (at -4.725 3.81) (size 1.9 0.6) (layers F.Cu F.Mask F.Paste) (roundrect_rratio 0.25))
  (pad 9 smd roundrect (at -4.725 5.08) (size 1.9 0.6) (layers F.Cu F.Mask F.Paste) (roundrect_rratio 0.25))
  (pad 10 smd roundrect (at 4.725 5.08) (size 1.9 0.6) (layers F.Cu F.Mask F.Paste) (roundrect_rratio 0.25))
  (pad 11 smd roundrect (at 4.725 3.81) (size 1.9 0.6) (layers F.Cu F.Mask F.Paste) (roundrect_rratio 0.25))
  (pad 12 smd roundrect (at 4.725 2.54) (size 1.9 0.6) (layers F.Cu F.Mask F.Paste) (roundrect_rratio 0.25))
  (pad 13 smd roundrect (at 4.725 1.27) (size 1.9 0.6) (layers F.Cu F.Mask F.Paste) (roundrect_rratio 0.25))
  (pad 14 smd roundrect (at 4.725 0) (size 1.9 0.6) (layers F.Cu F.Mask F.Paste) (roundrect_rratio 0.25))
  (pad 15 smd roundrect (at 4.725 -1.27) (size 1.9 0.6) (layers F.Cu F.Mask F.Paste) (roundrect_rratio 0.25))
  (pad 16 smd roundrect (at 4.725 -2.54) (size 1.9 0.6) (layers F.Cu F.Mask F.Paste) (roundrect_rratio 0.25))
  (pad 17 smd roundrect (at 4.725 -3.81) (size 1.9 0.6) (layers F.Cu F.Mask F.Paste) (roundrect_rratio 0.25))
  (pad 18 smd roundrect (at 4.725 -5.08) (size 1.9 0.6) (layers F.Cu F.Mask F.Paste) (roundrect_rratio 0.25))
  (fp_text user ${REFERENCE} (at 0 0) (layer F.Fab)
    (effects (font (size 1 1) (thickness 0.15)))
  )
  (model ${KICAD7_3DMODEL_DIR}/Package_SO.3dshapes/SOP-18_7.495x11.515mm_P1.27mm.wrl
    (offset (xyz 0 0 0))
    (scale (xyz 1 1 1))
    (rotate (xyz 0 0 0))
  )
)
