(footprint Texas_RJE0020A_VQFN-20-1EP_3x3mm_P0.45mm_EP0.675x0.76mm (version 20221018) (generator kicad-footprint-generator)
  (layer F.Cu)
  (descr "Texas RJE0020A VQFN, 20 Pin (https://www.ti.com/lit/ds/symlink/tps51396a.pdf#page=31), generated with kicad-footprint-generator ipc_noLead_generator.py")
  (tags "Texas VQFN NoLead")
  (attr smd)
  (fp_text reference REF** (at 0 -2.83) (layer F.SilkS)
    (effects (font (size 1 1) (thickness 0.15)))
  )
  (fp_text value Texas_RJE0020A_VQFN-20-1EP_3x3mm_P0.45mm_EP0.675x0.76mm (at 0 2.83) (layer F.Fab)
    (effects (font (size 1 1) (thickness 0.15)))
  )
  (fp_line (start 1.26 -1.61) (end 1.61 -1.61)
    (stroke (width 0.12) (type solid)) (layer F.SilkS))
  (fp_line (start 1.61 -1.61) (end 1.61 -1.26)
    (stroke (width 0.12) (type solid)) (layer F.SilkS))
  (fp_line (start -1.26 1.61) (end -1.61 1.61)
    (stroke (width 0.12) (type solid)) (layer F.SilkS))
  (fp_line (start -1.61 1.61) (end -1.61 1.26)
    (stroke (width 0.12) (type solid)) (layer F.SilkS))
  (fp_line (start 1.26 1.61) (end 1.61 1.61)
    (stroke (width 0.12) (type solid)) (layer F.SilkS))
  (fp_line (start 1.61 1.61) (end 1.61 1.26)
    (stroke (width 0.12) (type solid)) (layer F.SilkS))
  (fp_line (start -1.26 -1.61) (end -1.61 -1.61)
    (stroke (width 0.12) (type solid)) (layer F.SilkS))
  (fp_line (start -0.75 -1.5) (end 1.5 -1.5)
    (stroke (width 0.1) (type solid)) (layer F.Fab))
  (fp_line (start 1.5 -1.5) (end 1.5 1.5)
    (stroke (width 0.1) (type solid)) (layer F.Fab))
  (fp_line (start 1.5 1.5) (end -1.5 1.5)
    (stroke (width 0.1) (type solid)) (layer F.Fab))
  (fp_line (start -1.5 1.5) (end -1.5 -0.75)
    (stroke (width 0.1) (type solid)) (layer F.Fab))
  (fp_line (start -1.5 -0.75) (end -0.75 -1.5)
    (stroke (width 0.1) (type solid)) (layer F.Fab))
  (fp_line (start -2.13 -2.13) (end -2.13 2.13)
    (stroke (width 0.05) (type solid)) (layer F.CrtYd))
  (fp_line (start -2.13 2.13) (end 2.13 2.13)
    (stroke (width 0.05) (type solid)) (layer F.CrtYd))
  (fp_line (start 2.13 2.13) (end 2.13 -2.13)
    (stroke (width 0.05) (type solid)) (layer F.CrtYd))
  (fp_line (start 2.13 -2.13) (end -2.13 -2.13)
    (stroke (width 0.05) (type solid)) (layer F.CrtYd))
  (pad 1 smd custom (at -1.4375 -0.9) (size 0.072721 0.072721) (layers F.Cu F.Mask F.Paste)
    (options (clearance outline) (anchor circle))
    (primitives
      (gr_poly (pts
         (xy -0.4275 -0.09) (xy 0.253358 -0.09) (xy 0.4275 0.084142) (xy 0.4275 0.09)
         (xy -0.4275 0.09)) (width 0.02))
    ))
  (pad 2 smd roundrect (at -1.4375 -0.45) (size 0.875 0.2) (layers F.Cu F.Mask F.Paste) (roundrect_rratio 0.25))
  (pad 3 smd roundrect (at -1.4375 0) (size 0.875 0.2) (layers F.Cu F.Mask F.Paste) (roundrect_rratio 0.25))
  (pad 4 smd roundrect (at -1.4375 0.45) (size 0.875 0.2) (layers F.Cu F.Mask F.Paste) (roundrect_rratio 0.25))
  (pad 5 smd custom (at -1.4375 0.9) (size 0.072721 0.072721) (layers F.Cu F.Mask F.Paste)
    (options (clearance outline) (anchor circle))
    (primitives
      (gr_poly (pts
         (xy -0.4275 -0.09) (xy 0.4275 -0.09) (xy 0.4275 -0.084142) (xy 0.253358 0.09)
         (xy -0.4275 0.09)) (width 0.02))
    ))
  (pad 6 smd custom (at -0.9 1.4375) (size 0.072721 0.072721) (layers F.Cu F.Mask F.Paste)
    (options (clearance outline) (anchor circle))
    (primitives
      (gr_poly (pts
         (xy -0.09 -0.253358) (xy 0.084142 -0.4275) (xy 0.09 -0.4275) (xy 0.09 0.4275)
         (xy -0.09 0.4275)) (width 0.02))
    ))
  (pad 7 smd roundrect (at -0.45 1.4375) (size 0.2 0.875) (layers F.Cu F.Mask F.Paste) (roundrect_rratio 0.25))
  (pad 8 smd roundrect (at 0 1.4375) (size 0.2 0.875) (layers F.Cu F.Mask F.Paste) (roundrect_rratio 0.25))
  (pad 9 smd roundrect (at 0.45 1.4375) (size 0.2 0.875) (layers F.Cu F.Mask F.Paste) (roundrect_rratio 0.25))
  (pad 10 smd custom (at 0.9 1.4375) (size 0.072721 0.072721) (layers F.Cu F.Mask F.Paste)
    (options (clearance outline) (anchor circle))
    (primitives
      (gr_poly (pts
         (xy -0.09 -0.4275) (xy -0.084142 -0.4275) (xy 0.09 -0.253358) (xy 0.09 0.4275)
         (xy -0.09 0.4275)) (width 0.02))
    ))
  (pad 11 smd custom (at 1.4375 0.9) (size 0.072721 0.072721) (layers F.Cu F.Mask F.Paste)
    (options (clearance outline) (anchor circle))
    (primitives
      (gr_poly (pts
         (xy -0.4275 -0.09) (xy 0.4275 -0.09) (xy 0.4275 0.09) (xy -0.253358 0.09)
         (xy -0.4275 -0.084142)) (width 0.02))
    ))
  (pad 12 smd roundrect (at 1.4375 0.45) (size 0.875 0.2) (layers F.Cu F.Mask F.Paste) (roundrect_rratio 0.25))
  (pad 13 smd roundrect (at 1.4375 0) (size 0.875 0.2) (layers F.Cu F.Mask F.Paste) (roundrect_rratio 0.25))
  (pad 14 smd roundrect (at 1.4375 -0.45) (size 0.875 0.2) (layers F.Cu F.Mask F.Paste) (roundrect_rratio 0.25))
  (pad 15 smd custom (at 1.4375 -0.9) (size 0.072721 0.072721) (layers F.Cu F.Mask F.Paste)
    (options (clearance outline) (anchor circle))
    (primitives
      (gr_poly (pts
         (xy -0.4275 0.084142) (xy -0.253358 -0.09) (xy 0.4275 -0.09) (xy 0.4275 0.09)
         (xy -0.4275 0.09)) (width 0.02))
    ))
  (pad 16 smd custom (at 0.9 -1.4375) (size 0.072721 0.072721) (layers F.Cu F.Mask F.Paste)
    (options (clearance outline) (anchor circle))
    (primitives
      (gr_poly (pts
         (xy -0.09 -0.4275) (xy 0.09 -0.4275) (xy 0.09 0.253358) (xy -0.084142 0.4275)
         (xy -0.09 0.4275)) (width 0.02))
    ))
  (pad 17 smd roundrect (at 0.45 -1.4375) (size 0.2 0.875) (layers F.Cu F.Mask F.Paste) (roundrect_rratio 0.25))
  (pad 18 smd roundrect (at 0 -1.4375) (size 0.2 0.875) (layers F.Cu F.Mask F.Paste) (roundrect_rratio 0.25))
  (pad 19 smd roundrect (at -0.45 -1.4375) (size 0.2 0.875) (layers F.Cu F.Mask F.Paste) (roundrect_rratio 0.25))
  (pad 20 smd custom (at -0.9 -1.4375) (size 0.072721 0.072721) (layers F.Cu F.Mask F.Paste)
    (options (clearance outline) (anchor circle))
    (primitives
      (gr_poly (pts
         (xy -0.09 -0.4275) (xy 0.09 -0.4275) (xy 0.09 0.4275) (xy 0.084142 0.4275)
         (xy -0.09 0.253358)) (width 0.02))
    ))
  (pad 21 smd rect (at -0.06 -0.018) (size 0.675 0.76) (layers F.Cu F.Mask))
  (pad "" smd roundrect (at -0.06 -0.018) (size 0.64 0.72) (layers F.Paste) (roundrect_rratio 0.25))
  (fp_text user ${REFERENCE} (at 0 0) (layer F.Fab)
    (effects (font (size 0.75 0.75) (thickness 0.11)))
  )
  (model ${KICAD7_3DMODEL_DIR}/Package_DFN_QFN.3dshapes/Texas_RJE0020A_VQFN-20-1EP_3x3mm_P0.45mm_EP0.675x0.76mm.wrl
    (offset (xyz 0 0 0))
    (scale (xyz 1 1 1))
    (rotate (xyz 0 0 0))
  )
)
