(footprint ST_WLCSP-208_5.38x5.47mm_P0.35mm_Stagger (version 20221018) (generator kicad-footprint-generator)
  (layer F.Cu)
  (descr "ST WLCSP-208, ST die ID 481, 5.38x5.47mm, 208 Ball, X-staggered 26x16 Layout, 0.35mm Pitch, https://www.st.com/resource/en/datasheet/stm32u5a5aj.pdf")
  (tags "CSP 208 0.35")
  (attr smd)
  (solder_mask_margin 0.0325)
  (solder_paste_margin 0.0125)
  (fp_text reference REF** (at 0 -3.735) (layer F.SilkS)
    (effects (font (size 1 1) (thickness 0.15)))
  )
  (fp_text value ST_WLCSP-208_5.38x5.47mm_P0.35mm_Stagger (at 0 3.735) (layer F.Fab)
    (effects (font (size 1 1) (thickness 0.15)))
  )
  (fp_line (start 2.69 2.735) (end -2.69 2.735)
    (stroke (width 0.1) (type solid)) (layer F.Fab))
  (fp_line (start -2.69 2.735) (end -2.69 -1.735)
    (stroke (width 0.1) (type solid)) (layer F.Fab))
  (fp_line (start -2.69 -1.735) (end -1.69 -2.735)
    (stroke (width 0.1) (type solid)) (layer F.Fab))
  (fp_line (start -1.69 -2.735) (end 2.69 -2.735)
    (stroke (width 0.1) (type solid)) (layer F.Fab))
  (fp_line (start 2.69 -2.735) (end 2.69 2.735)
    (stroke (width 0.1) (type solid)) (layer F.Fab))
  (fp_line (start -3.69 -3.74) (end -3.69 3.74)
    (stroke (width 0.05) (type solid)) (layer F.CrtYd))
  (fp_line (start -3.69 3.74) (end 3.69 3.74)
    (stroke (width 0.05) (type solid)) (layer F.CrtYd))
  (fp_line (start 3.69 3.74) (end 3.69 -3.74)
    (stroke (width 0.05) (type solid)) (layer F.CrtYd))
  (fp_line (start 3.69 -3.74) (end -3.69 -3.74)
    (stroke (width 0.05) (type solid)) (layer F.CrtYd))
  (fp_line (start -1.8 -2.845) (end 2.8 -2.845)
    (stroke (width 0.12) (type solid)) (layer F.SilkS))
  (fp_line (start 2.8 -2.845) (end 2.8 2.845)
    (stroke (width 0.12) (type solid)) (layer F.SilkS))
  (fp_line (start 2.8 2.845) (end -2.8 2.845)
    (stroke (width 0.12) (type solid)) (layer F.SilkS))
  (fp_line (start -2.8 2.845) (end -2.8 -1.845)
    (stroke (width 0.12) (type solid)) (layer F.SilkS))
  (pad A2 smd circle (at -2.0125 -2.273317) (size 0.21 0.21) (property pad_prop_bga) (layers F.Cu F.Mask F.Paste))
  (pad A4 smd circle (at -1.6625 -2.273317) (size 0.21 0.21) (property pad_prop_bga) (layers F.Cu F.Mask F.Paste))
  (pad A6 smd circle (at -1.3125 -2.273317) (size 0.21 0.21) (property pad_prop_bga) (layers F.Cu F.Mask F.Paste))
  (pad A8 smd circle (at -0.9625 -2.273317) (size 0.21 0.21) (property pad_prop_bga) (layers F.Cu F.Mask F.Paste))
  (pad A10 smd circle (at -0.6125 -2.273317) (size 0.21 0.21) (property pad_prop_bga) (layers F.Cu F.Mask F.Paste))
  (pad A12 smd circle (at -0.2625 -2.273317) (size 0.21 0.21) (property pad_prop_bga) (layers F.Cu F.Mask F.Paste))
  (pad A14 smd circle (at 0.0875 -2.273317) (size 0.21 0.21) (property pad_prop_bga) (layers F.Cu F.Mask F.Paste))
  (pad A16 smd circle (at 0.4375 -2.273317) (size 0.21 0.21) (property pad_prop_bga) (layers F.Cu F.Mask F.Paste))
  (pad A18 smd circle (at 0.7875 -2.273317) (size 0.21 0.21) (property pad_prop_bga) (layers F.Cu F.Mask F.Paste))
  (pad A20 smd circle (at 1.1375 -2.273317) (size 0.21 0.21) (property pad_prop_bga) (layers F.Cu F.Mask F.Paste))
  (pad A22 smd circle (at 1.4875 -2.273317) (size 0.21 0.21) (property pad_prop_bga) (layers F.Cu F.Mask F.Paste))
  (pad A24 smd circle (at 1.8375 -2.273317) (size 0.21 0.21) (property pad_prop_bga) (layers F.Cu F.Mask F.Paste))
  (pad A26 smd circle (at 2.1875 -2.273317) (size 0.21 0.21) (property pad_prop_bga) (layers F.Cu F.Mask F.Paste))
  (pad B1 smd circle (at -2.1875 -1.970208) (size 0.21 0.21) (property pad_prop_bga) (layers F.Cu F.Mask F.Paste))
  (pad B3 smd circle (at -1.8375 -1.970208) (size 0.21 0.21) (property pad_prop_bga) (layers F.Cu F.Mask F.Paste))
  (pad B5 smd circle (at -1.4875 -1.970208) (size 0.21 0.21) (property pad_prop_bga) (layers F.Cu F.Mask F.Paste))
  (pad B7 smd circle (at -1.1375 -1.970208) (size 0.21 0.21) (property pad_prop_bga) (layers F.Cu F.Mask F.Paste))
  (pad B9 smd circle (at -0.7875 -1.970208) (size 0.21 0.21) (property pad_prop_bga) (layers F.Cu F.Mask F.Paste))
  (pad B11 smd circle (at -0.4375 -1.970208) (size 0.21 0.21) (property pad_prop_bga) (layers F.Cu F.Mask F.Paste))
  (pad B13 smd circle (at -0.0875 -1.970208) (size 0.21 0.21) (property pad_prop_bga) (layers F.Cu F.Mask F.Paste))
  (pad B15 smd circle (at 0.2625 -1.970208) (size 0.21 0.21) (property pad_prop_bga) (layers F.Cu F.Mask F.Paste))
  (pad B17 smd circle (at 0.6125 -1.970208) (size 0.21 0.21) (property pad_prop_bga) (layers F.Cu F.Mask F.Paste))
  (pad B19 smd circle (at 0.9625 -1.970208) (size 0.21 0.21) (property pad_prop_bga) (layers F.Cu F.Mask F.Paste))
  (pad B21 smd circle (at 1.3125 -1.970208) (size 0.21 0.21) (property pad_prop_bga) (layers F.Cu F.Mask F.Paste))
  (pad B23 smd circle (at 1.6625 -1.970208) (size 0.21 0.21) (property pad_prop_bga) (layers F.Cu F.Mask F.Paste))
  (pad B25 smd circle (at 2.0125 -1.970208) (size 0.21 0.21) (property pad_prop_bga) (layers F.Cu F.Mask F.Paste))
  (pad C2 smd circle (at -2.0125 -1.667099) (size 0.21 0.21) (property pad_prop_bga) (layers F.Cu F.Mask F.Paste))
  (pad C4 smd circle (at -1.6625 -1.667099) (size 0.21 0.21) (property pad_prop_bga) (layers F.Cu F.Mask F.Paste))
  (pad C6 smd circle (at -1.3125 -1.667099) (size 0.21 0.21) (property pad_prop_bga) (layers F.Cu F.Mask F.Paste))
  (pad C8 smd circle (at -0.9625 -1.667099) (size 0.21 0.21) (property pad_prop_bga) (layers F.Cu F.Mask F.Paste))
  (pad C10 smd circle (at -0.6125 -1.667099) (size 0.21 0.21) (property pad_prop_bga) (layers F.Cu F.Mask F.Paste))
  (pad C12 smd circle (at -0.2625 -1.667099) (size 0.21 0.21) (property pad_prop_bga) (layers F.Cu F.Mask F.Paste))
  (pad C14 smd circle (at 0.0875 -1.667099) (size 0.21 0.21) (property pad_prop_bga) (layers F.Cu F.Mask F.Paste))
  (pad C16 smd circle (at 0.4375 -1.667099) (size 0.21 0.21) (property pad_prop_bga) (layers F.Cu F.Mask F.Paste))
  (pad C18 smd circle (at 0.7875 -1.667099) (size 0.21 0.21) (property pad_prop_bga) (layers F.Cu F.Mask F.Paste))
  (pad C20 smd circle (at 1.1375 -1.667099) (size 0.21 0.21) (property pad_prop_bga) (layers F.Cu F.Mask F.Paste))
  (pad C22 smd circle (at 1.4875 -1.667099) (size 0.21 0.21) (property pad_prop_bga) (layers F.Cu F.Mask F.Paste))
  (pad C24 smd circle (at 1.8375 -1.667099) (size 0.21 0.21) (property pad_prop_bga) (layers F.Cu F.Mask F.Paste))
  (pad C26 smd circle (at 2.1875 -1.667099) (size 0.21 0.21) (property pad_prop_bga) (layers F.Cu F.Mask F.Paste))
  (pad D1 smd circle (at -2.1875 -1.36399) (size 0.21 0.21) (property pad_prop_bga) (layers F.Cu F.Mask F.Paste))
  (pad D3 smd circle (at -1.8375 -1.36399) (size 0.21 0.21) (property pad_prop_bga) (layers F.Cu F.Mask F.Paste))
  (pad D5 smd circle (at -1.4875 -1.36399) (size 0.21 0.21) (property pad_prop_bga) (layers F.Cu F.Mask F.Paste))
  (pad D7 smd circle (at -1.1375 -1.36399) (size 0.21 0.21) (property pad_prop_bga) (layers F.Cu F.Mask F.Paste))
  (pad D9 smd circle (at -0.7875 -1.36399) (size 0.21 0.21) (property pad_prop_bga) (layers F.Cu F.Mask F.Paste))
  (pad D11 smd circle (at -0.4375 -1.36399) (size 0.21 0.21) (property pad_prop_bga) (layers F.Cu F.Mask F.Paste))
  (pad D13 smd circle (at -0.0875 -1.36399) (size 0.21 0.21) (property pad_prop_bga) (layers F.Cu F.Mask F.Paste))
  (pad D15 smd circle (at 0.2625 -1.36399) (size 0.21 0.21) (property pad_prop_bga) (layers F.Cu F.Mask F.Paste))
  (pad D17 smd circle (at 0.6125 -1.36399) (size 0.21 0.21) (property pad_prop_bga) (layers F.Cu F.Mask F.Paste))
  (pad D19 smd circle (at 0.9625 -1.36399) (size 0.21 0.21) (property pad_prop_bga) (layers F.Cu F.Mask F.Paste))
  (pad D21 smd circle (at 1.3125 -1.36399) (size 0.21 0.21) (property pad_prop_bga) (layers F.Cu F.Mask F.Paste))
  (pad D23 smd circle (at 1.6625 -1.36399) (size 0.21 0.21) (property pad_prop_bga) (layers F.Cu F.Mask F.Paste))
  (pad D25 smd circle (at 2.0125 -1.36399) (size 0.21 0.21) (property pad_prop_bga) (layers F.Cu F.Mask F.Paste))
  (pad E2 smd circle (at -2.0125 -1.060881) (size 0.21 0.21) (property pad_prop_bga) (layers F.Cu F.Mask F.Paste))
  (pad E4 smd circle (at -1.6625 -1.060881) (size 0.21 0.21) (property pad_prop_bga) (layers F.Cu F.Mask F.Paste))
  (pad E6 smd circle (at -1.3125 -1.060881) (size 0.21 0.21) (property pad_prop_bga) (layers F.Cu F.Mask F.Paste))
  (pad E8 smd circle (at -0.9625 -1.060881) (size 0.21 0.21) (property pad_prop_bga) (layers F.Cu F.Mask F.Paste))
  (pad E10 smd circle (at -0.6125 -1.060881) (size 0.21 0.21) (property pad_prop_bga) (layers F.Cu F.Mask F.Paste))
  (pad E12 smd circle (at -0.2625 -1.060881) (size 0.21 0.21) (property pad_prop_bga) (layers F.Cu F.Mask F.Paste))
  (pad E14 smd circle (at 0.0875 -1.060881) (size 0.21 0.21) (property pad_prop_bga) (layers F.Cu F.Mask F.Paste))
  (pad E16 smd circle (at 0.4375 -1.060881) (size 0.21 0.21) (property pad_prop_bga) (layers F.Cu F.Mask F.Paste))
  (pad E18 smd circle (at 0.7875 -1.060881) (size 0.21 0.21) (property pad_prop_bga) (layers F.Cu F.Mask F.Paste))
  (pad E20 smd circle (at 1.1375 -1.060881) (size 0.21 0.21) (property pad_prop_bga) (layers F.Cu F.Mask F.Paste))
  (pad E22 smd circle (at 1.4875 -1.060881) (size 0.21 0.21) (property pad_prop_bga) (layers F.Cu F.Mask F.Paste))
  (pad E24 smd circle (at 1.8375 -1.060881) (size 0.21 0.21) (property pad_prop_bga) (layers F.Cu F.Mask F.Paste))
  (pad E26 smd circle (at 2.1875 -1.060881) (size 0.21 0.21) (property pad_prop_bga) (layers F.Cu F.Mask F.Paste))
  (pad F1 smd circle (at -2.1875 -0.757772) (size 0.21 0.21) (property pad_prop_bga) (layers F.Cu F.Mask F.Paste))
  (pad F3 smd circle (at -1.8375 -0.757772) (size 0.21 0.21) (property pad_prop_bga) (layers F.Cu F.Mask F.Paste))
  (pad F5 smd circle (at -1.4875 -0.757772) (size 0.21 0.21) (property pad_prop_bga) (layers F.Cu F.Mask F.Paste))
  (pad F7 smd circle (at -1.1375 -0.757772) (size 0.21 0.21) (property pad_prop_bga) (layers F.Cu F.Mask F.Paste))
  (pad F9 smd circle (at -0.7875 -0.757772) (size 0.21 0.21) (property pad_prop_bga) (layers F.Cu F.Mask F.Paste))
  (pad F11 smd circle (at -0.4375 -0.757772) (size 0.21 0.21) (property pad_prop_bga) (layers F.Cu F.Mask F.Paste))
  (pad F13 smd circle (at -0.0875 -0.757772) (size 0.21 0.21) (property pad_prop_bga) (layers F.Cu F.Mask F.Paste))
  (pad F15 smd circle (at 0.2625 -0.757772) (size 0.21 0.21) (property pad_prop_bga) (layers F.Cu F.Mask F.Paste))
  (pad F17 smd circle (at 0.6125 -0.757772) (size 0.21 0.21) (property pad_prop_bga) (layers F.Cu F.Mask F.Paste))
  (pad F19 smd circle (at 0.9625 -0.757772) (size 0.21 0.21) (property pad_prop_bga) (layers F.Cu F.Mask F.Paste))
  (pad F21 smd circle (at 1.3125 -0.757772) (size 0.21 0.21) (property pad_prop_bga) (layers F.Cu F.Mask F.Paste))
  (pad F23 smd circle (at 1.6625 -0.757772) (size 0.21 0.21) (property pad_prop_bga) (layers F.Cu F.Mask F.Paste))
  (pad F25 smd circle (at 2.0125 -0.757772) (size 0.21 0.21) (property pad_prop_bga) (layers F.Cu F.Mask F.Paste))
  (pad G2 smd circle (at -2.0125 -0.454663) (size 0.21 0.21) (property pad_prop_bga) (layers F.Cu F.Mask F.Paste))
  (pad G4 smd circle (at -1.6625 -0.454663) (size 0.21 0.21) (property pad_prop_bga) (layers F.Cu F.Mask F.Paste))
  (pad G6 smd circle (at -1.3125 -0.454663) (size 0.21 0.21) (property pad_prop_bga) (layers F.Cu F.Mask F.Paste))
  (pad G8 smd circle (at -0.9625 -0.454663) (size 0.21 0.21) (property pad_prop_bga) (layers F.Cu F.Mask F.Paste))
  (pad G10 smd circle (at -0.6125 -0.454663) (size 0.21 0.21) (property pad_prop_bga) (layers F.Cu F.Mask F.Paste))
  (pad G12 smd circle (at -0.2625 -0.454663) (size 0.21 0.21) (property pad_prop_bga) (layers F.Cu F.Mask F.Paste))
  (pad G14 smd circle (at 0.0875 -0.454663) (size 0.21 0.21) (property pad_prop_bga) (layers F.Cu F.Mask F.Paste))
  (pad G16 smd circle (at 0.4375 -0.454663) (size 0.21 0.21) (property pad_prop_bga) (layers F.Cu F.Mask F.Paste))
  (pad G18 smd circle (at 0.7875 -0.454663) (size 0.21 0.21) (property pad_prop_bga) (layers F.Cu F.Mask F.Paste))
  (pad G20 smd circle (at 1.1375 -0.454663) (size 0.21 0.21) (property pad_prop_bga) (layers F.Cu F.Mask F.Paste))
  (pad G22 smd circle (at 1.4875 -0.454663) (size 0.21 0.21) (property pad_prop_bga) (layers F.Cu F.Mask F.Paste))
  (pad G24 smd circle (at 1.8375 -0.454663) (size 0.21 0.21) (property pad_prop_bga) (layers F.Cu F.Mask F.Paste))
  (pad G26 smd circle (at 2.1875 -0.454663) (size 0.21 0.21) (property pad_prop_bga) (layers F.Cu F.Mask F.Paste))
  (pad H1 smd circle (at -2.1875 -0.151554) (size 0.21 0.21) (property pad_prop_bga) (layers F.Cu F.Mask F.Paste))
  (pad H3 smd circle (at -1.8375 -0.151554) (size 0.21 0.21) (property pad_prop_bga) (layers F.Cu F.Mask F.Paste))
  (pad H5 smd circle (at -1.4875 -0.151554) (size 0.21 0.21) (property pad_prop_bga) (layers F.Cu F.Mask F.Paste))
  (pad H7 smd circle (at -1.1375 -0.151554) (size 0.21 0.21) (property pad_prop_bga) (layers F.Cu F.Mask F.Paste))
  (pad H9 smd circle (at -0.7875 -0.151554) (size 0.21 0.21) (property pad_prop_bga) (layers F.Cu F.Mask F.Paste))
  (pad H11 smd circle (at -0.4375 -0.151554) (size 0.21 0.21) (property pad_prop_bga) (layers F.Cu F.Mask F.Paste))
  (pad H13 smd circle (at -0.0875 -0.151554) (size 0.21 0.21) (property pad_prop_bga) (layers F.Cu F.Mask F.Paste))
  (pad H15 smd circle (at 0.2625 -0.151554) (size 0.21 0.21) (property pad_prop_bga) (layers F.Cu F.Mask F.Paste))
  (pad H17 smd circle (at 0.6125 -0.151554) (size 0.21 0.21) (property pad_prop_bga) (layers F.Cu F.Mask F.Paste))
  (pad H19 smd circle (at 0.9625 -0.151554) (size 0.21 0.21) (property pad_prop_bga) (layers F.Cu F.Mask F.Paste))
  (pad H21 smd circle (at 1.3125 -0.151554) (size 0.21 0.21) (property pad_prop_bga) (layers F.Cu F.Mask F.Paste))
  (pad H23 smd circle (at 1.6625 -0.151554) (size 0.21 0.21) (property pad_prop_bga) (layers F.Cu F.Mask F.Paste))
  (pad H25 smd circle (at 2.0125 -0.151554) (size 0.21 0.21) (property pad_prop_bga) (layers F.Cu F.Mask F.Paste))
  (pad J2 smd circle (at -2.0125 0.151554) (size 0.21 0.21) (property pad_prop_bga) (layers F.Cu F.Mask F.Paste))
  (pad J4 smd circle (at -1.6625 0.151554) (size 0.21 0.21) (property pad_prop_bga) (layers F.Cu F.Mask F.Paste))
  (pad J6 smd circle (at -1.3125 0.151554) (size 0.21 0.21) (property pad_prop_bga) (layers F.Cu F.Mask F.Paste))
  (pad J8 smd circle (at -0.9625 0.151554) (size 0.21 0.21) (property pad_prop_bga) (layers F.Cu F.Mask F.Paste))
  (pad J10 smd circle (at -0.6125 0.151554) (size 0.21 0.21) (property pad_prop_bga) (layers F.Cu F.Mask F.Paste))
  (pad J12 smd circle (at -0.2625 0.151554) (size 0.21 0.21) (property pad_prop_bga) (layers F.Cu F.Mask F.Paste))
  (pad J14 smd circle (at 0.0875 0.151554) (size 0.21 0.21) (property pad_prop_bga) (layers F.Cu F.Mask F.Paste))
  (pad J16 smd circle (at 0.4375 0.151554) (size 0.21 0.21) (property pad_prop_bga) (layers F.Cu F.Mask F.Paste))
  (pad J18 smd circle (at 0.7875 0.151554) (size 0.21 0.21) (property pad_prop_bga) (layers F.Cu F.Mask F.Paste))
  (pad J20 smd circle (at 1.1375 0.151554) (size 0.21 0.21) (property pad_prop_bga) (layers F.Cu F.Mask F.Paste))
  (pad J22 smd circle (at 1.4875 0.151554) (size 0.21 0.21) (property pad_prop_bga) (layers F.Cu F.Mask F.Paste))
  (pad J24 smd circle (at 1.8375 0.151554) (size 0.21 0.21) (property pad_prop_bga) (layers F.Cu F.Mask F.Paste))
  (pad J26 smd circle (at 2.1875 0.151554) (size 0.21 0.21) (property pad_prop_bga) (layers F.Cu F.Mask F.Paste))
  (pad K1 smd circle (at -2.1875 0.454663) (size 0.21 0.21) (property pad_prop_bga) (layers F.Cu F.Mask F.Paste))
  (pad K3 smd circle (at -1.8375 0.454663) (size 0.21 0.21) (property pad_prop_bga) (layers F.Cu F.Mask F.Paste))
  (pad K5 smd circle (at -1.4875 0.454663) (size 0.21 0.21) (property pad_prop_bga) (layers F.Cu F.Mask F.Paste))
  (pad K7 smd circle (at -1.1375 0.454663) (size 0.21 0.21) (property pad_prop_bga) (layers F.Cu F.Mask F.Paste))
  (pad K9 smd circle (at -0.7875 0.454663) (size 0.21 0.21) (property pad_prop_bga) (layers F.Cu F.Mask F.Paste))
  (pad K11 smd circle (at -0.4375 0.454663) (size 0.21 0.21) (property pad_prop_bga) (layers F.Cu F.Mask F.Paste))
  (pad K13 smd circle (at -0.0875 0.454663) (size 0.21 0.21) (property pad_prop_bga) (layers F.Cu F.Mask F.Paste))
  (pad K15 smd circle (at 0.2625 0.454663) (size 0.21 0.21) (property pad_prop_bga) (layers F.Cu F.Mask F.Paste))
  (pad K17 smd circle (at 0.6125 0.454663) (size 0.21 0.21) (property pad_prop_bga) (layers F.Cu F.Mask F.Paste))
  (pad K19 smd circle (at 0.9625 0.454663) (size 0.21 0.21) (property pad_prop_bga) (layers F.Cu F.Mask F.Paste))
  (pad K21 smd circle (at 1.3125 0.454663) (size 0.21 0.21) (property pad_prop_bga) (layers F.Cu F.Mask F.Paste))
  (pad K23 smd circle (at 1.6625 0.454663) (size 0.21 0.21) (property pad_prop_bga) (layers F.Cu F.Mask F.Paste))
  (pad K25 smd circle (at 2.0125 0.454663) (size 0.21 0.21) (property pad_prop_bga) (layers F.Cu F.Mask F.Paste))
  (pad L2 smd circle (at -2.0125 0.757772) (size 0.21 0.21) (property pad_prop_bga) (layers F.Cu F.Mask F.Paste))
  (pad L4 smd circle (at -1.6625 0.757772) (size 0.21 0.21) (property pad_prop_bga) (layers F.Cu F.Mask F.Paste))
  (pad L6 smd circle (at -1.3125 0.757772) (size 0.21 0.21) (property pad_prop_bga) (layers F.Cu F.Mask F.Paste))
  (pad L8 smd circle (at -0.9625 0.757772) (size 0.21 0.21) (property pad_prop_bga) (layers F.Cu F.Mask F.Paste))
  (pad L10 smd circle (at -0.6125 0.757772) (size 0.21 0.21) (property pad_prop_bga) (layers F.Cu F.Mask F.Paste))
  (pad L12 smd circle (at -0.2625 0.757772) (size 0.21 0.21) (property pad_prop_bga) (layers F.Cu F.Mask F.Paste))
  (pad L14 smd circle (at 0.0875 0.757772) (size 0.21 0.21) (property pad_prop_bga) (layers F.Cu F.Mask F.Paste))
  (pad L16 smd circle (at 0.4375 0.757772) (size 0.21 0.21) (property pad_prop_bga) (layers F.Cu F.Mask F.Paste))
  (pad L18 smd circle (at 0.7875 0.757772) (size 0.21 0.21) (property pad_prop_bga) (layers F.Cu F.Mask F.Paste))
  (pad L20 smd circle (at 1.1375 0.757772) (size 0.21 0.21) (property pad_prop_bga) (layers F.Cu F.Mask F.Paste))
  (pad L22 smd circle (at 1.4875 0.757772) (size 0.21 0.21) (property pad_prop_bga) (layers F.Cu F.Mask F.Paste))
  (pad L24 smd circle (at 1.8375 0.757772) (size 0.21 0.21) (property pad_prop_bga) (layers F.Cu F.Mask F.Paste))
  (pad L26 smd circle (at 2.1875 0.757772) (size 0.21 0.21) (property pad_prop_bga) (layers F.Cu F.Mask F.Paste))
  (pad M1 smd circle (at -2.1875 1.060881) (size 0.21 0.21) (property pad_prop_bga) (layers F.Cu F.Mask F.Paste))
  (pad M3 smd circle (at -1.8375 1.060881) (size 0.21 0.21) (property pad_prop_bga) (layers F.Cu F.Mask F.Paste))
  (pad M5 smd circle (at -1.4875 1.060881) (size 0.21 0.21) (property pad_prop_bga) (layers F.Cu F.Mask F.Paste))
  (pad M7 smd circle (at -1.1375 1.060881) (size 0.21 0.21) (property pad_prop_bga) (layers F.Cu F.Mask F.Paste))
  (pad M9 smd circle (at -0.7875 1.060881) (size 0.21 0.21) (property pad_prop_bga) (layers F.Cu F.Mask F.Paste))
  (pad M11 smd circle (at -0.4375 1.060881) (size 0.21 0.21) (property pad_prop_bga) (layers F.Cu F.Mask F.Paste))
  (pad M13 smd circle (at -0.0875 1.060881) (size 0.21 0.21) (property pad_prop_bga) (layers F.Cu F.Mask F.Paste))
  (pad M15 smd circle (at 0.2625 1.060881) (size 0.21 0.21) (property pad_prop_bga) (layers F.Cu F.Mask F.Paste))
  (pad M17 smd circle (at 0.6125 1.060881) (size 0.21 0.21) (property pad_prop_bga) (layers F.Cu F.Mask F.Paste))
  (pad M19 smd circle (at 0.9625 1.060881) (size 0.21 0.21) (property pad_prop_bga) (layers F.Cu F.Mask F.Paste))
  (pad M21 smd circle (at 1.3125 1.060881) (size 0.21 0.21) (property pad_prop_bga) (layers F.Cu F.Mask F.Paste))
  (pad M23 smd circle (at 1.6625 1.060881) (size 0.21 0.21) (property pad_prop_bga) (layers F.Cu F.Mask F.Paste))
  (pad M25 smd circle (at 2.0125 1.060881) (size 0.21 0.21) (property pad_prop_bga) (layers F.Cu F.Mask F.Paste))
  (pad N2 smd circle (at -2.0125 1.36399) (size 0.21 0.21) (property pad_prop_bga) (layers F.Cu F.Mask F.Paste))
  (pad N4 smd circle (at -1.6625 1.36399) (size 0.21 0.21) (property pad_prop_bga) (layers F.Cu F.Mask F.Paste))
  (pad N6 smd circle (at -1.3125 1.36399) (size 0.21 0.21) (property pad_prop_bga) (layers F.Cu F.Mask F.Paste))
  (pad N8 smd circle (at -0.9625 1.36399) (size 0.21 0.21) (property pad_prop_bga) (layers F.Cu F.Mask F.Paste))
  (pad N10 smd circle (at -0.6125 1.36399) (size 0.21 0.21) (property pad_prop_bga) (layers F.Cu F.Mask F.Paste))
  (pad N12 smd circle (at -0.2625 1.36399) (size 0.21 0.21) (property pad_prop_bga) (layers F.Cu F.Mask F.Paste))
  (pad N14 smd circle (at 0.0875 1.36399) (size 0.21 0.21) (property pad_prop_bga) (layers F.Cu F.Mask F.Paste))
  (pad N16 smd circle (at 0.4375 1.36399) (size 0.21 0.21) (property pad_prop_bga) (layers F.Cu F.Mask F.Paste))
  (pad N18 smd circle (at 0.7875 1.36399) (size 0.21 0.21) (property pad_prop_bga) (layers F.Cu F.Mask F.Paste))
  (pad N20 smd circle (at 1.1375 1.36399) (size 0.21 0.21) (property pad_prop_bga) (layers F.Cu F.Mask F.Paste))
  (pad N22 smd circle (at 1.4875 1.36399) (size 0.21 0.21) (property pad_prop_bga) (layers F.Cu F.Mask F.Paste))
  (pad N24 smd circle (at 1.8375 1.36399) (size 0.21 0.21) (property pad_prop_bga) (layers F.Cu F.Mask F.Paste))
  (pad N26 smd circle (at 2.1875 1.36399) (size 0.21 0.21) (property pad_prop_bga) (layers F.Cu F.Mask F.Paste))
  (pad P1 smd circle (at -2.1875 1.667099) (size 0.21 0.21) (property pad_prop_bga) (layers F.Cu F.Mask F.Paste))
  (pad P3 smd circle (at -1.8375 1.667099) (size 0.21 0.21) (property pad_prop_bga) (layers F.Cu F.Mask F.Paste))
  (pad P5 smd circle (at -1.4875 1.667099) (size 0.21 0.21) (property pad_prop_bga) (layers F.Cu F.Mask F.Paste))
  (pad P7 smd circle (at -1.1375 1.667099) (size 0.21 0.21) (property pad_prop_bga) (layers F.Cu F.Mask F.Paste))
  (pad P9 smd circle (at -0.7875 1.667099) (size 0.21 0.21) (property pad_prop_bga) (layers F.Cu F.Mask F.Paste))
  (pad P11 smd circle (at -0.4375 1.667099) (size 0.21 0.21) (property pad_prop_bga) (layers F.Cu F.Mask F.Paste))
  (pad P13 smd circle (at -0.0875 1.667099) (size 0.21 0.21) (property pad_prop_bga) (layers F.Cu F.Mask F.Paste))
  (pad P15 smd circle (at 0.2625 1.667099) (size 0.21 0.21) (property pad_prop_bga) (layers F.Cu F.Mask F.Paste))
  (pad P17 smd circle (at 0.6125 1.667099) (size 0.21 0.21) (property pad_prop_bga) (layers F.Cu F.Mask F.Paste))
  (pad P19 smd circle (at 0.9625 1.667099) (size 0.21 0.21) (property pad_prop_bga) (layers F.Cu F.Mask F.Paste))
  (pad P21 smd circle (at 1.3125 1.667099) (size 0.21 0.21) (property pad_prop_bga) (layers F.Cu F.Mask F.Paste))
  (pad P23 smd circle (at 1.6625 1.667099) (size 0.21 0.21) (property pad_prop_bga) (layers F.Cu F.Mask F.Paste))
  (pad P25 smd circle (at 2.0125 1.667099) (size 0.21 0.21) (property pad_prop_bga) (layers F.Cu F.Mask F.Paste))
  (pad R2 smd circle (at -2.0125 1.970208) (size 0.21 0.21) (property pad_prop_bga) (layers F.Cu F.Mask F.Paste))
  (pad R4 smd circle (at -1.6625 1.970208) (size 0.21 0.21) (property pad_prop_bga) (layers F.Cu F.Mask F.Paste))
  (pad R6 smd circle (at -1.3125 1.970208) (size 0.21 0.21) (property pad_prop_bga) (layers F.Cu F.Mask F.Paste))
  (pad R8 smd circle (at -0.9625 1.970208) (size 0.21 0.21) (property pad_prop_bga) (layers F.Cu F.Mask F.Paste))
  (pad R10 smd circle (at -0.6125 1.970208) (size 0.21 0.21) (property pad_prop_bga) (layers F.Cu F.Mask F.Paste))
  (pad R12 smd circle (at -0.2625 1.970208) (size 0.21 0.21) (property pad_prop_bga) (layers F.Cu F.Mask F.Paste))
  (pad R14 smd circle (at 0.0875 1.970208) (size 0.21 0.21) (property pad_prop_bga) (layers F.Cu F.Mask F.Paste))
  (pad R16 smd circle (at 0.4375 1.970208) (size 0.21 0.21) (property pad_prop_bga) (layers F.Cu F.Mask F.Paste))
  (pad R18 smd circle (at 0.7875 1.970208) (size 0.21 0.21) (property pad_prop_bga) (layers F.Cu F.Mask F.Paste))
  (pad R20 smd circle (at 1.1375 1.970208) (size 0.21 0.21) (property pad_prop_bga) (layers F.Cu F.Mask F.Paste))
  (pad R22 smd circle (at 1.4875 1.970208) (size 0.21 0.21) (property pad_prop_bga) (layers F.Cu F.Mask F.Paste))
  (pad R24 smd circle (at 1.8375 1.970208) (size 0.21 0.21) (property pad_prop_bga) (layers F.Cu F.Mask F.Paste))
  (pad R26 smd circle (at 2.1875 1.970208) (size 0.21 0.21) (property pad_prop_bga) (layers F.Cu F.Mask F.Paste))
  (pad T1 smd circle (at -2.1875 2.273317) (size 0.21 0.21) (property pad_prop_bga) (layers F.Cu F.Mask F.Paste))
  (pad T3 smd circle (at -1.8375 2.273317) (size 0.21 0.21) (property pad_prop_bga) (layers F.Cu F.Mask F.Paste))
  (pad T5 smd circle (at -1.4875 2.273317) (size 0.21 0.21) (property pad_prop_bga) (layers F.Cu F.Mask F.Paste))
  (pad T7 smd circle (at -1.1375 2.273317) (size 0.21 0.21) (property pad_prop_bga) (layers F.Cu F.Mask F.Paste))
  (pad T9 smd circle (at -0.7875 2.273317) (size 0.21 0.21) (property pad_prop_bga) (layers F.Cu F.Mask F.Paste))
  (pad T11 smd circle (at -0.4375 2.273317) (size 0.21 0.21) (property pad_prop_bga) (layers F.Cu F.Mask F.Paste))
  (pad T13 smd circle (at -0.0875 2.273317) (size 0.21 0.21) (property pad_prop_bga) (layers F.Cu F.Mask F.Paste))
  (pad T15 smd circle (at 0.2625 2.273317) (size 0.21 0.21) (property pad_prop_bga) (layers F.Cu F.Mask F.Paste))
  (pad T17 smd circle (at 0.6125 2.273317) (size 0.21 0.21) (property pad_prop_bga) (layers F.Cu F.Mask F.Paste))
  (pad T19 smd circle (at 0.9625 2.273317) (size 0.21 0.21) (property pad_prop_bga) (layers F.Cu F.Mask F.Paste))
  (pad T21 smd circle (at 1.3125 2.273317) (size 0.21 0.21) (property pad_prop_bga) (layers F.Cu F.Mask F.Paste))
  (pad T23 smd circle (at 1.6625 2.273317) (size 0.21 0.21) (property pad_prop_bga) (layers F.Cu F.Mask F.Paste))
  (pad T25 smd circle (at 2.0125 2.273317) (size 0.21 0.21) (property pad_prop_bga) (layers F.Cu F.Mask F.Paste))
  (fp_text user ${REFERENCE} (at 0 0) (layer F.Fab)
    (effects (font (size 1 1) (thickness 0.15)))
  )
  (model ${KICAD7_3DMODEL_DIR}/Package_CSP.3dshapes/ST_WLCSP-208_5.38x5.47mm_P0.35mm_Stagger.wrl
    (offset (xyz 0 0 0))
    (scale (xyz 1 1 1))
    (rotate (xyz 0 0 0))
  )
)
