(footprint ST_WLCSP-12_1.70x1.42mm_P0.35mm_Stagger (version 20221018) (generator kicad-footprint-generator)
  (layer F.Cu)
  (descr "ST WLCSP-12, ST Die ID 443, 1.7x1.42mm, 12 Ball, Y-staggered 4x6 Layout, 0.35mm Pitch, https://www.st.com/resource/en/datasheet/stm32c011d6.pdf")
  (tags "CSP 12 0.35")
  (attr smd)
  (solder_mask_margin 0.0325)
  (solder_paste_margin 0.0125)
  (fp_text reference REF** (at 0 -1.71) (layer F.SilkS)
    (effects (font (size 1 1) (thickness 0.15)))
  )
  (fp_text value ST_WLCSP-12_1.70x1.42mm_P0.35mm_Stagger (at 0 1.71) (layer F.Fab)
    (effects (font (size 1 1) (thickness 0.15)))
  )
  (fp_line (start 0.85 0.71) (end -0.85 0.71)
    (stroke (width 0.1) (type solid)) (layer F.Fab))
  (fp_line (start -0.85 0.71) (end -0.85 -0.355)
    (stroke (width 0.1) (type solid)) (layer F.Fab))
  (fp_line (start -0.85 -0.355) (end -0.495 -0.71)
    (stroke (width 0.1) (type solid)) (layer F.Fab))
  (fp_line (start -0.495 -0.71) (end 0.85 -0.71)
    (stroke (width 0.1) (type solid)) (layer F.Fab))
  (fp_line (start 0.85 -0.71) (end 0.85 0.71)
    (stroke (width 0.1) (type solid)) (layer F.Fab))
  (fp_line (start -1.85 -1.71) (end -1.85 1.71)
    (stroke (width 0.05) (type solid)) (layer F.CrtYd))
  (fp_line (start -1.85 1.71) (end 1.85 1.71)
    (stroke (width 0.05) (type solid)) (layer F.CrtYd))
  (fp_line (start 1.85 1.71) (end 1.85 -1.71)
    (stroke (width 0.05) (type solid)) (layer F.CrtYd))
  (fp_line (start 1.85 -1.71) (end -1.85 -1.71)
    (stroke (width 0.05) (type solid)) (layer F.CrtYd))
  (fp_line (start -0.605 -0.82) (end 0.96 -0.82)
    (stroke (width 0.12) (type solid)) (layer F.SilkS))
  (fp_line (start 0.96 -0.82) (end 0.96 0.82)
    (stroke (width 0.12) (type solid)) (layer F.SilkS))
  (fp_line (start 0.96 0.82) (end -0.96 0.82)
    (stroke (width 0.12) (type solid)) (layer F.SilkS))
  (fp_line (start -0.96 0.82) (end -0.96 -0.465)
    (stroke (width 0.12) (type solid)) (layer F.SilkS))
  (pad A2 smd circle (at -0.151554 -0.4375) (size 0.2 0.2) (property pad_prop_bga) (layers F.Cu F.Mask F.Paste))
  (pad A4 smd circle (at 0.454663 -0.4375) (size 0.2 0.2) (property pad_prop_bga) (layers F.Cu F.Mask F.Paste))
  (pad B1 smd circle (at -0.454663 -0.2625) (size 0.2 0.2) (property pad_prop_bga) (layers F.Cu F.Mask F.Paste))
  (pad B3 smd circle (at 0.151554 -0.2625) (size 0.2 0.2) (property pad_prop_bga) (layers F.Cu F.Mask F.Paste))
  (pad C2 smd circle (at -0.151554 -0.0875) (size 0.2 0.2) (property pad_prop_bga) (layers F.Cu F.Mask F.Paste))
  (pad C4 smd circle (at 0.454663 -0.0875) (size 0.2 0.2) (property pad_prop_bga) (layers F.Cu F.Mask F.Paste))
  (pad D1 smd circle (at -0.454663 0.0875) (size 0.2 0.2) (property pad_prop_bga) (layers F.Cu F.Mask F.Paste))
  (pad D3 smd circle (at 0.151554 0.0875) (size 0.2 0.2) (property pad_prop_bga) (layers F.Cu F.Mask F.Paste))
  (pad E2 smd circle (at -0.151554 0.2625) (size 0.2 0.2) (property pad_prop_bga) (layers F.Cu F.Mask F.Paste))
  (pad E4 smd circle (at 0.454663 0.2625) (size 0.2 0.2) (property pad_prop_bga) (layers F.Cu F.Mask F.Paste))
  (pad F1 smd circle (at -0.454663 0.4375) (size 0.2 0.2) (property pad_prop_bga) (layers F.Cu F.Mask F.Paste))
  (pad F3 smd circle (at 0.151554 0.4375) (size 0.2 0.2) (property pad_prop_bga) (layers F.Cu F.Mask F.Paste))
  (fp_text user ${REFERENCE} (at 0 0) (layer F.Fab)
    (effects (font (size 0.4 0.4) (thickness 0.06)))
  )
  (model ${KICAD7_3DMODEL_DIR}/Package_CSP.3dshapes/ST_WLCSP-12_1.70x1.42mm_P0.35mm_Stagger.wrl
    (offset (xyz 0 0 0))
    (scale (xyz 1 1 1))
    (rotate (xyz 0 0 0))
  )
)
