(footprint ST_WLCSP-25_2.33x2.24mm_Layout5x5_P0.4mm (version 20221018) (generator kicad-footprint-generator)
  (layer F.Cu)
  (descr "ST WLCSP-25, ST Die ID 474, 2.33x2.24mm, 25 Ball, 5x5 Layout, 0.4mm Pitch, https://www.st.com/resource/en/datasheet/stm32h503eb.pdf")
  (tags "CSP 25 0.4")
  (attr smd)
  (solder_mask_margin 0.0325)
  (solder_paste_margin 0.0125)
  (fp_text reference REF** (at 0 -2.12) (layer F.SilkS)
    (effects (font (size 1 1) (thickness 0.15)))
  )
  (fp_text value ST_WLCSP-25_2.33x2.24mm_Layout5x5_P0.4mm (at 0 2.12) (layer F.Fab)
    (effects (font (size 1 1) (thickness 0.15)))
  )
  (fp_line (start 1.165 1.12) (end -1.165 1.12)
    (stroke (width 0.1) (type solid)) (layer F.Fab))
  (fp_line (start -1.165 1.12) (end -1.165 -0.56)
    (stroke (width 0.1) (type solid)) (layer F.Fab))
  (fp_line (start -1.165 -0.56) (end -0.605 -1.12)
    (stroke (width 0.1) (type solid)) (layer F.Fab))
  (fp_line (start -0.605 -1.12) (end 1.165 -1.12)
    (stroke (width 0.1) (type solid)) (layer F.Fab))
  (fp_line (start 1.165 -1.12) (end 1.165 1.12)
    (stroke (width 0.1) (type solid)) (layer F.Fab))
  (fp_line (start -2.17 -2.12) (end -2.17 2.12)
    (stroke (width 0.05) (type solid)) (layer F.CrtYd))
  (fp_line (start -2.17 2.12) (end 2.17 2.12)
    (stroke (width 0.05) (type solid)) (layer F.CrtYd))
  (fp_line (start 2.17 2.12) (end 2.17 -2.12)
    (stroke (width 0.05) (type solid)) (layer F.CrtYd))
  (fp_line (start 2.17 -2.12) (end -2.17 -2.12)
    (stroke (width 0.05) (type solid)) (layer F.CrtYd))
  (fp_line (start -0.715 -1.23) (end 1.275 -1.23)
    (stroke (width 0.12) (type solid)) (layer F.SilkS))
  (fp_line (start 1.275 -1.23) (end 1.275 1.23)
    (stroke (width 0.12) (type solid)) (layer F.SilkS))
  (fp_line (start 1.275 1.23) (end -1.275 1.23)
    (stroke (width 0.12) (type solid)) (layer F.SilkS))
  (fp_line (start -1.275 1.23) (end -1.275 -0.67)
    (stroke (width 0.12) (type solid)) (layer F.SilkS))
  (pad A1 smd circle (at -0.8 -0.8) (size 0.225 0.225) (property pad_prop_bga) (layers F.Cu F.Mask F.Paste))
  (pad A2 smd circle (at -0.4 -0.8) (size 0.225 0.225) (property pad_prop_bga) (layers F.Cu F.Mask F.Paste))
  (pad A3 smd circle (at 0 -0.8) (size 0.225 0.225) (property pad_prop_bga) (layers F.Cu F.Mask F.Paste))
  (pad A4 smd circle (at 0.4 -0.8) (size 0.225 0.225) (property pad_prop_bga) (layers F.Cu F.Mask F.Paste))
  (pad A5 smd circle (at 0.8 -0.8) (size 0.225 0.225) (property pad_prop_bga) (layers F.Cu F.Mask F.Paste))
  (pad B1 smd circle (at -0.8 -0.4) (size 0.225 0.225) (property pad_prop_bga) (layers F.Cu F.Mask F.Paste))
  (pad B2 smd circle (at -0.4 -0.4) (size 0.225 0.225) (property pad_prop_bga) (layers F.Cu F.Mask F.Paste))
  (pad B3 smd circle (at 0 -0.4) (size 0.225 0.225) (property pad_prop_bga) (layers F.Cu F.Mask F.Paste))
  (pad B4 smd circle (at 0.4 -0.4) (size 0.225 0.225) (property pad_prop_bga) (layers F.Cu F.Mask F.Paste))
  (pad B5 smd circle (at 0.8 -0.4) (size 0.225 0.225) (property pad_prop_bga) (layers F.Cu F.Mask F.Paste))
  (pad C1 smd circle (at -0.8 0) (size 0.225 0.225) (property pad_prop_bga) (layers F.Cu F.Mask F.Paste))
  (pad C2 smd circle (at -0.4 0) (size 0.225 0.225) (property pad_prop_bga) (layers F.Cu F.Mask F.Paste))
  (pad C3 smd circle (at 0 0) (size 0.225 0.225) (property pad_prop_bga) (layers F.Cu F.Mask F.Paste))
  (pad C4 smd circle (at 0.4 0) (size 0.225 0.225) (property pad_prop_bga) (layers F.Cu F.Mask F.Paste))
  (pad C5 smd circle (at 0.8 0) (size 0.225 0.225) (property pad_prop_bga) (layers F.Cu F.Mask F.Paste))
  (pad D1 smd circle (at -0.8 0.4) (size 0.225 0.225) (property pad_prop_bga) (layers F.Cu F.Mask F.Paste))
  (pad D2 smd circle (at -0.4 0.4) (size 0.225 0.225) (property pad_prop_bga) (layers F.Cu F.Mask F.Paste))
  (pad D3 smd circle (at 0 0.4) (size 0.225 0.225) (property pad_prop_bga) (layers F.Cu F.Mask F.Paste))
  (pad D4 smd circle (at 0.4 0.4) (size 0.225 0.225) (property pad_prop_bga) (layers F.Cu F.Mask F.Paste))
  (pad D5 smd circle (at 0.8 0.4) (size 0.225 0.225) (property pad_prop_bga) (layers F.Cu F.Mask F.Paste))
  (pad E1 smd circle (at -0.8 0.8) (size 0.225 0.225) (property pad_prop_bga) (layers F.Cu F.Mask F.Paste))
  (pad E2 smd circle (at -0.4 0.8) (size 0.225 0.225) (property pad_prop_bga) (layers F.Cu F.Mask F.Paste))
  (pad E3 smd circle (at 0 0.8) (size 0.225 0.225) (property pad_prop_bga) (layers F.Cu F.Mask F.Paste))
  (pad E4 smd circle (at 0.4 0.8) (size 0.225 0.225) (property pad_prop_bga) (layers F.Cu F.Mask F.Paste))
  (pad E5 smd circle (at 0.8 0.8) (size 0.225 0.225) (property pad_prop_bga) (layers F.Cu F.Mask F.Paste))
  (fp_text user ${REFERENCE} (at 0 0) (layer F.Fab)
    (effects (font (size 0.54 0.54) (thickness 0.081)))
  )
  (model ${KICAD7_3DMODEL_DIR}/Package_CSP.3dshapes/ST_WLCSP-25_2.33x2.24mm_Layout5x5_P0.4mm.wrl
    (offset (xyz 0 0 0))
    (scale (xyz 1 1 1))
    (rotate (xyz 0 0 0))
  )
)
